[
  {
    "meshId": "D001525",
    "cliniaId": "c1843224-549c-4e34-a705-6557255b577e",
    "legacyId": null,
    "name": "Behavioral Sciences",
    "nameFr": "Sciences du comportement",
    "tags": [
      "Behavioral Science",
      "Science, Behavioral",
      "Sciences, Behavioral",
      "Proxemics",
      "Proxemic"
    ],
    "tagsFr": [],
    "narrowerTerms": ["Proxemics"],
    "broaderTerms": [],
    "acronyms": [],
    "abbreviations": [],
    "professional": null,
    "professionalFr": null,
    "genericGroup": true,
    "childrens": [
      {
        "meshId": "D011584",
        "cliniaId": "213107a6-a3d0-40f3-9522-92cbc977b89d",
        "legacyId": "53",
        "name": "Psychology",
        "nameFr": "Psychologie",
        "tags": [
          "Psy",
          "Side Effects, Psychological",
          "Psychological Side Effects",
          "Psychological Side Effect",
          "Side Effect, Psychological",
          "Psychosocial Factors",
          "Factor, Psychosocial",
          "Factors, Psychosocial",
          "Psychosocial Factor",
          "Psychological Factors",
          "Factors, Psychological",
          "Factor, Psychological",
          "Psychological Factor",
          "Psychologists",
          "Psychologist",
          "Clinical Psychology"
        ],
        "tagsFr": ["Psy"],
        "narrowerTerms": [
          "Side Effects, Psychological",
          "Psychosocial Factors",
          "Psychological Factors",
          "Psychologists"
        ],
        "broaderTerms": [],
        "acronyms": [],
        "abbreviations": [],
        "professional": "Psychologist",
        "professionalFr": "Psychologue",
        "genericGroup": false,
        "childrens": [
          {
            "meshId": "D005008",
            "cliniaId": "766e9520-52d6-4a3b-980c-a3144643a86f",
            "legacyId": null,
            "name": "Ethnopsychology",
            "nameFr": "Ethnopsychologie",
            "tags": [
              "Transcultural Psychology",
              "Psychology, Transcultural",
              "Ethnopsychiatry",
              "Transcultural Psychiatry",
              "Psychiatry, Transcultural",
              "Cultural Psychiatry",
              "Psychiatry, Cultural"
            ],
            "tagsFr": [],
            "narrowerTerms": ["Ethnopsychiatry"],
            "broaderTerms": [],
            "acronyms": [],
            "abbreviations": [],
            "professional": null,
            "professionalFr": null,
            "genericGroup": false,
            "childrens": [],
            "services": []
          },
          {
            "meshId": null,
            "cliniaId": "00f363e1-8dae-4ffd-a1b6-7da43c7ad609",
            "legacyId": "80",
            "name": "Neuropsychology",
            "nameFr": "Neuropsychologie",
            "tags": [],
            "tagsFr": [],
            "narrowerTerms": [],
            "broaderTerms": [],
            "acronyms": [],
            "abbreviations": [],
            "professional": "Neuropsychologist",
            "professionalFr": "Neuropsychologue",
            "genericGroup": false,
            "childrens": [],
            "services": []
          }
        ],
        "services": []
      },
      {
        "meshId": null,
        "cliniaId": "df6c53e4-80a0-45de-a297-896a88c1ed32",
        "legacyId": "72",
        "name": "Social Worker",
        "nameFr": "Travailleur social",
        "tags": [],
        "tagsFr": ["Médiateur"],
        "narrowerTerms": [],
        "broaderTerms": [],
        "acronyms": [],
        "abbreviations": [],
        "professional": "Social Worker",
        "professionalFr": "Travailleur social",
        "genericGroup": false,
        "childrens": [],
        "services": []
      },
      {
        "meshId": null,
        "cliniaId": "5f2742f6-c894-459d-b63a-c4df70141369",
        "legacyId": "77",
        "name": "Relationship Therapy",
        "nameFr": "Thérapie en relation d'aide",
        "tags": [],
        "tagsFr": [],
        "narrowerTerms": [],
        "broaderTerms": [],
        "acronyms": [],
        "abbreviations": [],
        "professional": "Relationship therapist",
        "professionalFr": "Thérapeute en relation d'aide",
        "genericGroup": false,
        "childrens": [],
        "services": []
      },
      {
        "meshId": null,
        "cliniaId": "9cfdde98-183e-4820-ba95-be7319c17fb9",
        "legacyId": "54",
        "name": "Psychotherapy",
        "nameFr": "Psychothérapie",
        "tags": [],
        "tagsFr": [],
        "narrowerTerms": [],
        "broaderTerms": [],
        "acronyms": [],
        "abbreviations": [],
        "professional": "Psychotherapist",
        "professionalFr": "Psychothérapeute",
        "genericGroup": false,
        "childrens": [],
        "services": []
      },
      {
        "meshId": "D044347",
        "cliniaId": "7c0c4a33-efdb-4dda-a63a-4a39c0077afe",
        "legacyId": "59",
        "name": "Sexology",
        "nameFr": "Sexologie",
        "tags": [],
        "tagsFr": [],
        "narrowerTerms": [],
        "broaderTerms": [],
        "acronyms": [],
        "abbreviations": [],
        "professional": "Sexologist",
        "professionalFr": "Sexologue",
        "genericGroup": false,
        "childrens": [
          {
            "meshId": "D012731",
            "cliniaId": "b0cf8d93-92a2-4a8d-a5d8-8a15f9edd4a7",
            "legacyId": null,
            "name": "Sex Counseling",
            "nameFr": "Troubles Psychosexuels",
            "tags": ["Counseling, Sex", "Counselings, Sex", "Sex Counselings"],
            "tagsFr": [],
            "narrowerTerms": [],
            "broaderTerms": [],
            "acronyms": [],
            "abbreviations": [],
            "professional": null,
            "professionalFr": null,
            "genericGroup": false,
            "childrens": [],
            "services": []
          },
          {
            "meshId": "D012736",
            "cliniaId": "8fbd95ab-e2ba-4734-bcd2-6f866f4a82c6",
            "legacyId": null,
            "name": "Sex Education",
            "nameFr": "Éducation Sexuelle",
            "tags": [
              "Education, Sex",
              "Family Planning Training",
              "Training, Family Planning",
              "Family Planning Education",
              "Education, Family Planning",
              "Family Planning Instructors",
              "Family Planning Instructor",
              "Instructor, Family Planning",
              "Instructors, Family Planning"
            ],
            "tagsFr": [],
            "narrowerTerms": [
              "Family Planning Training",
              "Family Planning Education",
              "Family Planning Instructors"
            ],
            "broaderTerms": [],
            "acronyms": [],
            "abbreviations": [],
            "professional": null,
            "professionalFr": null,
            "genericGroup": false,
            "childrens": [],
            "services": []
          }
        ],
        "services": []
      }
    ],
    "services": []
  },
  {
    "meshId": "D026881",
    "cliniaId": "4ed05f0a-6ef0-47c4-8a96-b8e49c5fad5d",
    "legacyId": "1",
    "name": "Acupuncture",
    "nameFr": "Acupuncture",
    "tags": ["Pharmacopuncture"],
    "tagsFr": ["Acuponcture"],
    "narrowerTerms": ["Pharmacopuncture"],
    "broaderTerms": [],
    "acronyms": [],
    "abbreviations": [],
    "professional": "Acupuncturist",
    "professionalFr": "Acupuncteur",
    "genericGroup": false,
    "childrens": [],
    "services": []
  },
  {
    "meshId": "D016390",
    "cliniaId": "c5254b6f-2d74-4bc0-bdb9-3010971ab530",
    "legacyId": null,
    "name": "Allied Health Occupations",
    "nameFr": "Professions paramédicales",
    "tags": [
      "Occupations, Allied Health",
      "Allied Health Occupation",
      "Occupation, Allied Health"
    ],
    "tagsFr": [],
    "narrowerTerms": [],
    "broaderTerms": [],
    "acronyms": [],
    "abbreviations": [],
    "professional": null,
    "professionalFr": null,
    "genericGroup": true,
    "childrens": [
      {
        "meshId": "D001298",
        "cliniaId": "070d7b80-c5a2-4d32-b118-2e3e159b0a32",
        "legacyId": "4",
        "name": "Audiology",
        "nameFr": "Audiologie",
        "tags": [],
        "tagsFr": [],
        "narrowerTerms": [],
        "broaderTerms": [],
        "acronyms": [],
        "abbreviations": [],
        "professional": "Audiologist",
        "professionalFr": "Audiologiste",
        "genericGroup": false,
        "childrens": [],
        "services": []
      },
      {
        "meshId": "D013677",
        "cliniaId": "115224b8-46e7-4dcd-a57d-965db4db1971",
        "legacyId": "49",
        "name": "Laboratory",
        "nameFr": "Laboratoire",
        "tags": [
          "Blood test & analysis",
          "Laboratory Science, Medical",
          "Laboratory Sciences, Medical",
          "Medical Laboratory Sciences",
          "Science, Medical Laboratory",
          "Sciences, Medical Laboratory",
          "Medical Laboratory Technology",
          "Technology, Medical Laboratory",
          "Laboratory Technologies, Medical",
          "Laboratory Technology, Medical",
          "Medical Laboratory Technologies",
          "Technologies, Medical Laboratory",
          "Clinical Laboratory Science",
          "Clinical Laboratory Sciences",
          "Laboratory Science, Clinical",
          "Laboratory Sciences, Clinical",
          "Science, Clinical Laboratory",
          "Sciences, Clinical Laboratory"
        ],
        "tagsFr": ["Tests sanguins et analyses"],
        "narrowerTerms": [],
        "broaderTerms": [],
        "acronyms": [],
        "abbreviations": [],
        "professional": "Blood sample & analysis service",
        "professionalFr": "Service de prélèvement et analyse",
        "genericGroup": false,
        "childrens": [],
        "services": []
      },
      {
        "meshId": "D009788",
        "cliniaId": "d84952af-1e88-4f99-a0f2-4d32a4737d00",
        "legacyId": "19",
        "name": "Occupational Therapy",
        "nameFr": "Ergothérapie",
        "tags": [
          "Therapy, Occupational",
          "Occupational Therapies",
          "Therapies, Occupational"
        ],
        "tagsFr": [],
        "narrowerTerms": [],
        "broaderTerms": [],
        "acronyms": ["OT"],
        "abbreviations": [],
        "professional": "Occupational therapist",
        "professionalFr": "Ergothérapeute",
        "genericGroup": false,
        "childrens": [],
        "services": []
      },
      {
        "meshId": "D026761",
        "cliniaId": "50e44225-3e24-4c01-9519-e4fd4fb861cb",
        "legacyId": "46",
        "name": "Physiotherapy",
        "nameFr": "Physiothérapie",
        "tags": [
          "Specialty, Physical Therapy",
          "Therapy Specialty, Physical",
          "Physiotherapy Specialty",
          "Specialty, Physiotherapy"
        ],
        "tagsFr": [],
        "narrowerTerms": [],
        "broaderTerms": [],
        "acronyms": [],
        "abbreviations": [],
        "professional": "Physiotherapist",
        "professionalFr": "Physiothérapeute",
        "genericGroup": false,
        "childrens": [],
        "services": []
      },
      {
        "meshId": "D013066",
        "cliniaId": "a276d835-2057-4fc4-a249-19a4d1473a66",
        "legacyId": "38",
        "name": "Speech-Language Pathology",
        "nameFr": "Orthophonie",
        "tags": [
          "Speech Language Pathology",
          "Pathology, Speech-Language",
          "Pathology, Speech Language",
          "Language Pathology",
          "Pathology, Language",
          "Pathology, Speech",
          "Speech Pathology"
        ],
        "tagsFr": [],
        "narrowerTerms": ["Language Pathology", "Pathology, Speech"],
        "broaderTerms": [],
        "acronyms": ["S-LP", "SLP"],
        "abbreviations": [],
        "professional": "Speech Therapist",
        "professionalFr": "Orthophoniste",
        "genericGroup": false,
        "childrens": [],
        "services": []
      }
    ],
    "services": []
  },
  {
    "meshId": "D002684",
    "cliniaId": "c96b4474-26d8-436f-9de6-571e22c164d1",
    "legacyId": "7",
    "name": "Chiropractic",
    "nameFr": "Chiropratique",
    "tags": ["Chiro"],
    "tagsFr": ["Chiro"],
    "narrowerTerms": [],
    "broaderTerms": [],
    "acronyms": [],
    "abbreviations": [],
    "professional": "Chiropractor",
    "professionalFr": "Chiropraticien",
    "genericGroup": false,
    "childrens": [],
    "services": []
  },
  {
    "meshId": "D003813",
    "cliniaId": "9e76cdae-d252-4618-ab89-ae344eb78c34",
    "legacyId": null,
    "name": "Dentistry",
    "nameFr": "Dentisterie",
    "tags": [],
    "tagsFr": [],
    "narrowerTerms": [],
    "broaderTerms": [],
    "acronyms": [],
    "abbreviations": [],
    "professional": null,
    "professionalFr": null,
    "genericGroup": true,
    "childrens": [
      {
        "meshId": "D005792",
        "cliniaId": "7d0b0fd2-6155-48b0-82e7-6db1fb160c46",
        "legacyId": "14",
        "name": "General Dentistry",
        "nameFr": "Dentisterie générale",
        "tags": [
          "Dentistry",
          "Dental General Practices",
          "Practice, Dental General",
          "Practices, Dental General",
          "Dental General Practice",
          "General Practices, Dental"
        ],
        "tagsFr": ["Dentisterie"],
        "narrowerTerms": [],
        "broaderTerms": [],
        "acronyms": [],
        "abbreviations": [],
        "professional": "Dentist",
        "professionalFr": "Dentiste",
        "genericGroup": false,
        "childrens": [],
        "services": []
      },
      {
        "meshId": "D004708",
        "cliniaId": "d41008a4-f419-4fa6-b767-4359fe3efdb1",
        "legacyId": "18",
        "name": "Endodontics",
        "nameFr": "Endodontie",
        "tags": ["Endodontology"],
        "tagsFr": [],
        "narrowerTerms": ["Endodontology"],
        "broaderTerms": [],
        "acronyms": [],
        "abbreviations": [],
        "professional": "Endodontist",
        "professionalFr": "Endodontiste",
        "genericGroup": false,
        "childrens": [],
        "services": []
      },
      {
        "meshId": "D009970",
        "cliniaId": "a91041bb-0cc4-4a34-9abe-ecf10a035bc5",
        "legacyId": "35",
        "name": "Orthodontics",
        "nameFr": "Orthodontie",
        "tags": [],
        "tagsFr": [],
        "narrowerTerms": [],
        "broaderTerms": [],
        "acronyms": [],
        "abbreviations": [],
        "professional": "Orthodontist",
        "professionalFr": "Orthodontiste",
        "genericGroup": false,
        "childrens": [],
        "services": []
      },
      {
        "meshId": "D010517",
        "cliniaId": "8abbffd8-7417-4668-97b3-3f503ed54d77",
        "legacyId": "42",
        "name": "Periodontics",
        "nameFr": "Parodontie",
        "tags": [
          "Periodontic",
          "Periodontal Medicine",
          "Medicine, Periodontal",
          "Medicines, Periodontal",
          "Periodontal Medicines"
        ],
        "tagsFr": [],
        "narrowerTerms": [],
        "broaderTerms": [],
        "acronyms": [],
        "abbreviations": [],
        "professional": "Periodontist",
        "professionalFr": "Parodontiste",
        "genericGroup": false,
        "childrens": [],
        "services": []
      },
      {
        "meshId": "D011476",
        "cliniaId": "1c3661aa-19ca-46ec-a15c-9cf60aac1522",
        "legacyId": "48",
        "name": "Prosthodontics",
        "nameFr": "Prosthodontie",
        "tags": ["Dentistry, Prosthetic", "Prosthetic Dentistry"],
        "tagsFr": [],
        "narrowerTerms": [],
        "broaderTerms": [],
        "acronyms": [],
        "abbreviations": [],
        "professional": "Prosthodontist",
        "professionalFr": "Prosthodontiste",
        "genericGroup": false,
        "childrens": [],
        "services": []
      },
      {
        "meshId": "D013515",
        "cliniaId": "b8aa7209-7c0b-40d0-90f2-e431f3094895",
        "legacyId": "9",
        "name": "Oral and Maxillofacial Surgery",
        "nameFr": "Chirurgie Buccale et Maxillo-Faciale",
        "tags": [
          "Maxillofacial Surgery",
          "Surgery, Maxillofacial",
          "Oral Surgery",
          "Exodontics"
        ],
        "tagsFr": [],
        "narrowerTerms": ["Exodontics"],
        "broaderTerms": [],
        "acronyms": [],
        "abbreviations": [],
        "professional": "Oral and maxillofacial surgeon",
        "professionalFr": "Chirurgien buccal et maxillo-facial",
        "genericGroup": false,
        "childrens": [],
        "services": []
      },
      {
        "meshId": null,
        "cliniaId": "b5555647-82e8-4252-bace-35cdf007262a",
        "legacyId": "73",
        "name": "Implantology",
        "nameFr": "Implantologie",
        "tags": [],
        "tagsFr": [],
        "narrowerTerms": [],
        "broaderTerms": [],
        "acronyms": [],
        "abbreviations": [],
        "professional": "oral surgeon",
        "professionalFr": "Chirurgien buccal",
        "genericGroup": false,
        "childrens": [],
        "services": []
      }
    ],
    "services": []
  },
  {
    "meshId": "D008511",
    "cliniaId": "37c4dc18-9874-4a81-bb10-218223af3414",
    "legacyId": null,
    "name": "Medicine",
    "nameFr": "Médecine",
    "tags": [
      "Specialties, Medical",
      "Medical Specialty",
      "Medical Specialities",
      "Medical Speciality",
      "Speciality, Medical",
      "Specialities, Medical",
      "Medical Specialties",
      "Specialty, Medical"
    ],
    "tagsFr": [],
    "narrowerTerms": ["Specialties, Medical"],
    "broaderTerms": [],
    "acronyms": [],
    "abbreviations": [],
    "professional": null,
    "professionalFr": null,
    "genericGroup": true,
    "childrens": [
      {
        "meshId": "D000776",
        "cliniaId": "36e33b68-e55b-4ffb-ad72-8006da12e3fe",
        "legacyId": null,
        "name": "Anesthesiology",
        "nameFr": "Anesthésiologie",
        "tags": [],
        "tagsFr": [],
        "narrowerTerms": [],
        "broaderTerms": [],
        "acronyms": [],
        "abbreviations": [],
        "professional": null,
        "professionalFr": null,
        "genericGroup": false,
        "childrens": [],
        "services": []
      },
      {
        "meshId": "D052938",
        "cliniaId": "73b749ed-f6d3-4c8e-aff7-992f636e569e",
        "legacyId": null,
        "name": "Bariatric Medicine",
        "nameFr": "Médecine bariatrique",
        "tags": ["Medicine, Bariatric"],
        "tagsFr": [],
        "narrowerTerms": [],
        "broaderTerms": [],
        "acronyms": [],
        "abbreviations": [],
        "professional": null,
        "professionalFr": null,
        "genericGroup": false,
        "childrens": [],
        "services": []
      },
      {
        "meshId": "D003880",
        "cliniaId": "ae9ddab0-52df-402a-8f4d-54145d94246b",
        "legacyId": "16",
        "name": "Dermatology",
        "nameFr": "Dermatologie",
        "tags": [],
        "tagsFr": [],
        "narrowerTerms": [],
        "broaderTerms": [],
        "acronyms": [],
        "abbreviations": [],
        "professional": "Dermatologist",
        "professionalFr": "Dermatologue",
        "genericGroup": false,
        "childrens": [],
        "services": []
      },
      {
        "meshId": "D058006",
        "cliniaId": "0166751f-c137-44b3-99cc-377fe221df95",
        "legacyId": "12",
        "name": "General Practice",
        "nameFr": "Médecin Généraliste",
        "tags": ["General practitioner", "Practice, General"],
        "tagsFr": ["Omnipraticien"],
        "narrowerTerms": [],
        "broaderTerms": [],
        "acronyms": [],
        "abbreviations": [],
        "professional": "Doctor",
        "professionalFr": "Médecin",
        "genericGroup": false,
        "childrens": [
          {
            "meshId": "D005194",
            "cliniaId": "f908a330-7f5a-4964-871d-140112c44917",
            "legacyId": null,
            "name": "Family Practice",
            "nameFr": "Médecine Familiale",
            "tags": [
              "Family Practices",
              "Practice, Family",
              "Practices, Family"
            ],
            "tagsFr": [],
            "narrowerTerms": [],
            "broaderTerms": [],
            "acronyms": [],
            "abbreviations": [],
            "professional": null,
            "professionalFr": null,
            "genericGroup": false,
            "childrens": [],
            "services": []
          }
        ],
        "services": []
      },
      {
        "meshId": "D005853",
        "cliniaId": "237d47a1-2e4b-4c7b-b66f-d9f64a8be717",
        "legacyId": "23",
        "name": "Geriatrics",
        "nameFr": "Gériatrie",
        "tags": ["Gerontology"],
        "tagsFr": [],
        "narrowerTerms": ["Gerontology"],
        "broaderTerms": [],
        "acronyms": [],
        "abbreviations": [],
        "professional": "Geriatrician",
        "professionalFr": "Gériatre",
        "genericGroup": false,
        "childrens": [],
        "services": []
      },
      {
        "meshId": "D007388",
        "cliniaId": "04e476bf-1557-4390-b1bf-54fa7fed9a96",
        "legacyId": null,
        "name": "Internal Medicine",
        "nameFr": "Médecine Interne",
        "tags": ["Medicine, Internal"],
        "tagsFr": [],
        "narrowerTerms": [],
        "broaderTerms": [],
        "acronyms": [],
        "abbreviations": [],
        "professional": null,
        "professionalFr": null,
        "genericGroup": true,
        "childrens": [
          {
            "meshId": "D002309",
            "cliniaId": "9a2d0238-c5c3-411a-811b-848ded565276",
            "legacyId": "6",
            "name": "Cardiology",
            "nameFr": "Cardiologie",
            "tags": [
              "Vascular Medicine",
              "Medicine, Vascular",
              "Angiology",
              "Cardiovascular Disease Specialty",
              "Disease Specialty, Cardiovascular",
              "Specialty, Cardiovascular Disease"
            ],
            "tagsFr": [],
            "narrowerTerms": [
              "Vascular Medicine",
              "Cardiovascular Disease Specialty"
            ],
            "broaderTerms": [],
            "acronyms": [],
            "abbreviations": [],
            "professional": "Cardiologist",
            "professionalFr": "Cardiologue",
            "genericGroup": false,
            "childrens": [],
            "services": []
          },
          {
            "meshId": "D004704",
            "cliniaId": "375d8134-bc2e-4b9e-810f-faf326668d41",
            "legacyId": "17",
            "name": "Endocrinology",
            "nameFr": "Endocrinologie",
            "tags": [
              "Endocrinology and Metabolism Specialty",
              "Metabolism and Endocrinology Specialty"
            ],
            "tagsFr": [],
            "narrowerTerms": ["Endocrinology and Metabolism Specialty"],
            "broaderTerms": [],
            "acronyms": [],
            "abbreviations": [],
            "professional": "Endocrinologist",
            "professionalFr": "Endocrinologue",
            "genericGroup": false,
            "childrens": [],
            "services": []
          },
          {
            "meshId": "D005762",
            "cliniaId": "c1980f81-ac47-4ecb-9ef2-c747cfc263f3",
            "legacyId": "22",
            "name": "Gastroenterology",
            "nameFr": "Gastroentérologie",
            "tags": ["Hepatology"],
            "tagsFr": [],
            "narrowerTerms": ["Hepatology"],
            "broaderTerms": [],
            "acronyms": [],
            "abbreviations": [],
            "professional": "Gastroenterologist",
            "professionalFr": "Gastro-entérologue",
            "genericGroup": false,
            "childrens": [
              {
                "meshId": null,
                "cliniaId": "bc25a9b3-ca83-49d7-b734-cc3223e7b840",
                "legacyId": "88",
                "name": "Hepatology",
                "nameFr": "Hépatologie",
                "tags": [],
                "tagsFr": [],
                "narrowerTerms": [],
                "broaderTerms": [],
                "acronyms": [],
                "abbreviations": [],
                "professional": "Hepatologists",
                "professionalFr": "Hépatologue",
                "genericGroup": false,
                "childrens": [],
                "services": []
              }
            ],
            "services": []
          },
          {
            "meshId": "D006405",
            "cliniaId": "90088e8e-08c2-409b-b801-2ce7e45a4589",
            "legacyId": "87",
            "name": "Hematology",
            "nameFr": "Hématologie",
            "tags": [],
            "tagsFr": [],
            "narrowerTerms": [],
            "broaderTerms": [],
            "acronyms": [],
            "abbreviations": [],
            "professional": "Hematologist",
            "professionalFr": "Hématologue",
            "genericGroup": false,
            "childrens": [],
            "services": []
          },
          {
            "meshId": "D055552",
            "cliniaId": "1d1282db-5352-48fd-b486-f32534e15880",
            "legacyId": null,
            "name": "Infectious Disease Medicine",
            "nameFr": "Médecine des Maladies Infectieuses",
            "tags": [
              "Disease Medicine, Infectious",
              "Medicine, Infectious Disease",
              "Infectious Diseases Specialty",
              "Diseases Specialty, Infectious",
              "Infectious Diseases Specialties",
              "Specialties, Infectious Diseases",
              "Specialty, Infectious Diseases",
              "Infectious Disease Specialty",
              "Infectious Disease Specialties",
              "Specialties, Infectious Disease",
              "Specialty, Infectious Disease"
            ],
            "tagsFr": [],
            "narrowerTerms": [],
            "broaderTerms": [],
            "acronyms": [],
            "abbreviations": [],
            "professional": null,
            "professionalFr": null,
            "genericGroup": false,
            "childrens": [],
            "services": []
          },
          {
            "meshId": "D008495",
            "cliniaId": "aa035226-af0f-4694-ba43-245a0c8f476b",
            "legacyId": null,
            "name": "Medical Oncology",
            "nameFr": "Oncologie",
            "tags": [
              "Oncology, Medical",
              "Clinical Oncology",
              "Oncology, Clinical"
            ],
            "tagsFr": [],
            "narrowerTerms": ["Clinical Oncology"],
            "broaderTerms": [],
            "acronyms": [],
            "abbreviations": [],
            "professional": null,
            "professionalFr": null,
            "genericGroup": false,
            "childrens": [
              {
                "meshId": "D000073320",
                "cliniaId": "ef2fb9e2-c395-4b9b-a02f-dd75c17f4454",
                "legacyId": null,
                "name": "Psycho-Oncology",
                "nameFr": "Psycho-Oncologie",
                "tags": [
                  "Psycho Oncology",
                  "Psychosocial Oncology",
                  "Oncology, Psychosocial",
                  "Psychooncology"
                ],
                "tagsFr": [],
                "narrowerTerms": [],
                "broaderTerms": [],
                "acronyms": [],
                "abbreviations": [],
                "professional": null,
                "professionalFr": null,
                "genericGroup": false,
                "childrens": [],
                "services": []
              },
              {
                "meshId": "D018787",
                "cliniaId": "d5a8742f-c305-4fd3-a706-5b269623835f",
                "legacyId": null,
                "name": "Radiation Oncology",
                "nameFr": "Oncologie Radiologique",
                "tags": [
                  "Oncology, Radiation",
                  "Therapeutic Radiology",
                  "Radiology, Therapeutic"
                ],
                "tagsFr": [],
                "narrowerTerms": ["Therapeutic Radiology"],
                "broaderTerms": [],
                "acronyms": [],
                "abbreviations": [],
                "professional": null,
                "professionalFr": null,
                "genericGroup": false,
                "childrens": [],
                "services": []
              },
              {
                "meshId": "D000071077",
                "cliniaId": "a8544f60-fea8-4168-b104-f717940e91cb",
                "legacyId": null,
                "name": "Surgical Oncology",
                "nameFr": "Oncologie Chirurgicale",
                "tags": ["Oncology, Surgical"],
                "tagsFr": [],
                "narrowerTerms": [],
                "broaderTerms": [],
                "acronyms": [],
                "abbreviations": [],
                "professional": null,
                "professionalFr": null,
                "genericGroup": false,
                "childrens": [],
                "services": []
              }
            ],
            "services": []
          },
          {
            "meshId": "D009398",
            "cliniaId": "53b04e47-5e19-40db-850c-1f229531a6b4",
            "legacyId": "89",
            "name": "Nephrology",
            "nameFr": "Néprhologie",
            "tags": [],
            "tagsFr": [],
            "narrowerTerms": [],
            "broaderTerms": [],
            "acronyms": [],
            "abbreviations": [],
            "professional": "Nephrologist",
            "professionalFr": "Néprhologue",
            "genericGroup": false,
            "childrens": [],
            "services": []
          },
          {
            "meshId": "D015272",
            "cliniaId": "61ddf81d-17d2-4cbe-a93e-a4bf1278d9ed",
            "legacyId": "86",
            "name": "Pneumology",
            "nameFr": "Pneumologie",
            "tags": [
              "Pneumonology",
              "Respiratory Medicine",
              "Medicine, Respiratory",
              "Pulmonology",
              "Pneumology",
              "Medicine, Pulmonary"
            ],
            "tagsFr": [],
            "narrowerTerms": [],
            "broaderTerms": [],
            "acronyms": [],
            "abbreviations": [],
            "professional": "Pneumonologist",
            "professionalFr": "Pneumologue",
            "genericGroup": false,
            "childrens": [],
            "services": []
          },
          {
            "meshId": "D012219",
            "cliniaId": "b9d250f0-6fee-448e-a488-737f4c7cd121",
            "legacyId": "57",
            "name": "Rheumatology",
            "nameFr": "Rhumatologie",
            "tags": [],
            "tagsFr": [],
            "narrowerTerms": [],
            "broaderTerms": [],
            "acronyms": [],
            "abbreviations": [],
            "professional": "Rheumatologist",
            "professionalFr": "Rhumatologue",
            "genericGroup": false,
            "childrens": [],
            "services": []
          },
          {
            "meshId": "D056508",
            "cliniaId": "28e56031-4916-45e5-9464-e294300a37c0",
            "legacyId": null,
            "name": "Sleep Medicine Specialty",
            "nameFr": "Médecine du Sommeil",
            "tags": [
              "Medicine Specialties, Sleep",
              "Medicine Specialty, Sleep",
              "Sleep Medicine Specialties",
              "Specialties, Sleep Medicine",
              "Specialty, Sleep Medicine"
            ],
            "tagsFr": [],
            "narrowerTerms": [],
            "broaderTerms": [],
            "acronyms": [],
            "abbreviations": [],
            "professional": null,
            "professionalFr": null,
            "genericGroup": false,
            "childrens": [],
            "services": []
          }
        ],
        "services": []
      },
      {
        "meshId": "D009462",
        "cliniaId": "0e2587f0-bc89-47ac-aca3-6925158611da",
        "legacyId": "30",
        "name": "Neurology",
        "nameFr": "Neurologie",
        "tags": [],
        "tagsFr": [],
        "narrowerTerms": [],
        "broaderTerms": [],
        "acronyms": [],
        "abbreviations": [],
        "professional": "Neurologist",
        "professionalFr": "Neurologue",
        "genericGroup": false,
        "childrens": [
          {
            "meshId": "D000069338",
            "cliniaId": "8165e503-3098-4c3d-89e4-193c2ac9e841",
            "legacyId": null,
            "name": "Neuropathology",
            "nameFr": "Neuropathologie",
            "tags": [
              "Neuropathologies",
              "Neuropathologists",
              "Neuropathologist"
            ],
            "tagsFr": [],
            "narrowerTerms": ["Neuropathologists"],
            "broaderTerms": [],
            "acronyms": [],
            "abbreviations": [],
            "professional": null,
            "professionalFr": null,
            "genericGroup": false,
            "childrens": [],
            "services": []
          },
          {
            "meshId": "D063165",
            "cliniaId": "dd86ef41-5cc6-4485-851c-8d59c1e7276a",
            "legacyId": null,
            "name": "Neurotology",
            "nameFr": "Neurotologie",
            "tags": ["Otoneurology", "Neuro-Otology", "Neuro Otology"],
            "tagsFr": [],
            "narrowerTerms": [],
            "broaderTerms": [],
            "acronyms": [],
            "abbreviations": [],
            "professional": null,
            "professionalFr": null,
            "genericGroup": false,
            "childrens": [],
            "services": []
          }
        ],
        "services": []
      },
      {
        "meshId": "D065126",
        "cliniaId": "7227fd1a-e84c-4b2a-9535-559e173b72a3",
        "legacyId": null,
        "name": "Palliative Medicine",
        "nameFr": "Médecine Palliative",
        "tags": [
          "Palliative Care Medicine",
          "Medicine, Palliative Care",
          "Medicine, Palliative"
        ],
        "tagsFr": [],
        "narrowerTerms": [],
        "broaderTerms": [],
        "acronyms": [],
        "abbreviations": [],
        "professional": null,
        "professionalFr": null,
        "genericGroup": false,
        "childrens": [],
        "services": []
      },
      {
        "meshId": "D010336",
        "cliniaId": "8264c9c3-4f09-4cd0-bc44-0661f56220aa",
        "legacyId": null,
        "name": "Pathology",
        "nameFr": "Pathologie",
        "tags": ["Pathologies"],
        "tagsFr": [],
        "narrowerTerms": [],
        "broaderTerms": [],
        "acronyms": [],
        "abbreviations": [],
        "professional": null,
        "professionalFr": null,
        "genericGroup": false,
        "childrens": [],
        "services": []
      },
      {
        "meshId": "D010372",
        "cliniaId": "cbc9d6d6-0aff-4886-8f5d-f3d9ca89590a",
        "legacyId": "43",
        "name": "Pediatrics",
        "nameFr": "Pédiatrie",
        "tags": [],
        "tagsFr": [],
        "narrowerTerms": [],
        "broaderTerms": [],
        "acronyms": [],
        "abbreviations": [],
        "professional": "paediatrician",
        "professionalFr": "Pédiatre",
        "genericGroup": false,
        "childrens": [
          {
            "meshId": "D009359",
            "cliniaId": "f184c734-e305-4875-a40e-2a1ced37362d",
            "legacyId": null,
            "name": "Neonatology",
            "nameFr": "Néonatologie",
            "tags": [],
            "tagsFr": [],
            "narrowerTerms": [],
            "broaderTerms": [],
            "acronyms": [],
            "abbreviations": [],
            "professional": null,
            "professionalFr": null,
            "genericGroup": false,
            "childrens": [],
            "services": []
          },
          {
            "meshId": "D010500",
            "cliniaId": "86365d62-d56f-4464-9c00-a97c41fe05c4",
            "legacyId": null,
            "name": "Perinatology",
            "nameFr": "Périnatologie",
            "tags": [],
            "tagsFr": [],
            "narrowerTerms": [],
            "broaderTerms": [],
            "acronyms": [],
            "abbreviations": [],
            "professional": null,
            "professionalFr": null,
            "genericGroup": false,
            "childrens": [],
            "services": []
          }
        ],
        "services": []
      },
      {
        "meshId": "D011570",
        "cliniaId": "1bf1f9e7-7b7c-4e2f-b2a5-f4e9fa8b632a",
        "legacyId": "51",
        "name": "Psychiatry",
        "nameFr": "Psychiatrie",
        "tags": ["Psychiatrists", "Psychiatrist"],
        "tagsFr": [],
        "narrowerTerms": ["Psychiatrists"],
        "broaderTerms": [],
        "acronyms": [],
        "abbreviations": [],
        "professional": "Psychiatrist",
        "professionalFr": "Psychiatre",
        "genericGroup": false,
        "childrens": [
          {
            "meshId": "D058027",
            "cliniaId": "31d8934a-7117-4197-bcbd-bac5ccdd25db",
            "legacyId": null,
            "name": "Neuropsychiatry",
            "nameFr": "Neuropsychiatrie",
            "tags": [],
            "tagsFr": [],
            "narrowerTerms": [],
            "broaderTerms": [],
            "acronyms": [],
            "abbreviations": [],
            "professional": null,
            "professionalFr": null,
            "genericGroup": false,
            "childrens": [],
            "services": []
          },
          {
            "meshId": "D011572",
            "cliniaId": "524a24d9-d7ba-4be3-b00c-36d32198e85a",
            "legacyId": "50",
            "name": "Psychoanalysis",
            "nameFr": "Psychanalyse",
            "tags": [
              "Psychodynamic Analysis",
              "Analyses, Psychodynamic",
              "Analysis, Psychodynamic",
              "Psychodynamic Analyses"
            ],
            "tagsFr": [],
            "narrowerTerms": ["Psychodynamic Analysis"],
            "broaderTerms": [],
            "acronyms": [],
            "abbreviations": [],
            "professional": "Psychoanalyst",
            "professionalFr": "Psychanalyste",
            "genericGroup": false,
            "childrens": [],
            "services": []
          }
        ],
        "services": []
      },
      {
        "meshId": "D004813",
        "cliniaId": "57e53992-ec70-4721-910e-76b4ac01c96f",
        "legacyId": null,
        "name": "Epidemiology",
        "nameFr": "Épidémiologie",
        "tags": [],
        "tagsFr": [],
        "narrowerTerms": [],
        "broaderTerms": [],
        "acronyms": [],
        "abbreviations": [],
        "professional": null,
        "professionalFr": null,
        "genericGroup": false,
        "childrens": [],
        "services": []
      },
      {
        "meshId": null,
        "cliniaId": "0a3985ae-f6ee-47fe-91e3-6dbe5dea094d",
        "legacyId": "45",
        "name": "Phlebology",
        "nameFr": "Phlébologie",
        "tags": ["Varix"],
        "tagsFr": ["Varice"],
        "narrowerTerms": [],
        "broaderTerms": [],
        "acronyms": [],
        "abbreviations": [],
        "professional": "Phlebologist",
        "professionalFr": "Phlébologue",
        "genericGroup": false,
        "childrens": [],
        "services": []
      },
      {
        "meshId": "D011871",
        "cliniaId": "bdd1b341-4d3e-4c1a-9e36-05b5a1322e63",
        "legacyId": "55",
        "name": "Radiology",
        "nameFr": "Radiologie",
        "tags": [],
        "tagsFr": ["Imagerie médicale"],
        "narrowerTerms": [],
        "broaderTerms": [],
        "acronyms": [],
        "abbreviations": [],
        "professional": "Radiologist",
        "professionalFr": "Radiologiste",
        "genericGroup": false,
        "childrens": [
          {
            "meshId": "D009683",
            "cliniaId": "4685244e-116b-41e7-8b60-2a16fb4f1ea5",
            "legacyId": null,
            "name": "Nuclear Medicine",
            "nameFr": "Médecine Nucléaire",
            "tags": [
              "Medicine, Nuclear",
              "Medicine, Atomic",
              "Atomic Medicine",
              "Radiology, Nuclear",
              "Nuclear Radiology"
            ],
            "tagsFr": [],
            "narrowerTerms": ["Radiology, Nuclear"],
            "broaderTerms": [],
            "acronyms": [],
            "abbreviations": [],
            "professional": null,
            "professionalFr": null,
            "genericGroup": false,
            "childrens": [],
            "services": []
          }
        ],
        "services": []
      },
      {
        "meshId": "D033441",
        "cliniaId": "188db1c1-e23e-4103-9bfe-4fbf9e447e4d",
        "legacyId": null,
        "name": "Andrology",
        "nameFr": "Andrologie",
        "tags": [],
        "tagsFr": [],
        "narrowerTerms": [],
        "broaderTerms": [],
        "acronyms": [],
        "abbreviations": [],
        "professional": null,
        "professionalFr": null,
        "genericGroup": false,
        "childrens": [],
        "services": []
      },
      {
        "meshId": "D006176",
        "cliniaId": "9bbf7504-b7fc-453e-bae6-7e53b0cd6674",
        "legacyId": "24",
        "name": "Gynecology",
        "nameFr": "Gynécologie",
        "tags": [],
        "tagsFr": [],
        "narrowerTerms": [],
        "broaderTerms": [],
        "acronyms": [],
        "abbreviations": [],
        "professional": "Gynecologist",
        "professionalFr": "Gynécologue",
        "genericGroup": false,
        "childrens": [],
        "services": []
      },
      {
        "meshId": "D013043",
        "cliniaId": "1ba6ea2e-d9af-422a-8c00-49812b686042",
        "legacyId": null,
        "name": "Surgical Specialties",
        "nameFr": "Spécialités Chirurgicales",
        "tags": ["Surgical Specialties"],
        "tagsFr": [],
        "narrowerTerms": [],
        "broaderTerms": [],
        "acronyms": [],
        "abbreviations": [],
        "professional": null,
        "professionalFr": null,
        "genericGroup": true,
        "childrens": [
          {
            "meshId": "D003107",
            "cliniaId": "3345a8b4-b4f3-4903-9ac9-27a76f5f9d57",
            "legacyId": "92",
            "name": "Proctology",
            "nameFr": "Proctologie",
            "tags": [
              "Surgery Specialty, Colon and Rectal",
              "Surgery, Colorectal",
              "Colon and Rectal Surgery Specialty",
              "Colon Surgery Specialty",
              "Specialty, Colon Surgery",
              "Surgery Specialty, Colon",
              "Proctology",
              "Specialty, Rectal Surgery",
              "Surgery Specialty, Rectal",
              "Rectal Surgery Specialty"
            ],
            "tagsFr": [],
            "narrowerTerms": ["Colon Surgery Specialty", "Proctology"],
            "broaderTerms": [],
            "acronyms": [],
            "abbreviations": [],
            "professional": "Proctologists",
            "professionalFr": "Proctologue",
            "genericGroup": false,
            "childrens": [],
            "services": []
          },
          {
            "meshId": "D013502",
            "cliniaId": "e2fea14b-1a2f-43a8-94f8-e58a2e3e9387",
            "legacyId": "8",
            "name": "General Surgery",
            "nameFr": "Chirurgie générale",
            "tags": ["Surgery, General", "Surgery"],
            "tagsFr": [],
            "narrowerTerms": [],
            "broaderTerms": [],
            "acronyms": [],
            "abbreviations": [],
            "professional": "General Surgeon",
            "professionalFr": "Chirurgien générale",
            "genericGroup": false,
            "childrens": [],
            "services": []
          },
          {
            "meshId": "D009493",
            "cliniaId": "40fb09fd-034c-4b3e-92d7-825ac751eed7",
            "legacyId": "93",
            "name": "Neurosurgery",
            "nameFr": "Neurochirurgie",
            "tags": ["Neurosurgeries"],
            "tagsFr": [],
            "narrowerTerms": [],
            "broaderTerms": [],
            "acronyms": [],
            "abbreviations": [],
            "professional": "Neurosurgeon",
            "professionalFr": "Neurochirurgien",
            "genericGroup": false,
            "childrens": [],
            "services": []
          },
          {
            "meshId": "D009774",
            "cliniaId": "3a674dea-c4c6-4e36-9357-5e6ccaa301c0",
            "legacyId": "21",
            "name": "Obstetrics",
            "nameFr": "Obstétrique",
            "tags": [],
            "tagsFr": [],
            "narrowerTerms": [],
            "broaderTerms": [],
            "acronyms": [],
            "abbreviations": [],
            "professional": "Fertility specialist",
            "professionalFr": "Spécialiste en fertilité",
            "genericGroup": false,
            "childrens": [],
            "services": []
          },
          {
            "meshId": "D009885",
            "cliniaId": "cff1d034-2935-4b22-a2dd-62ecb554e909",
            "legacyId": "32",
            "name": "Ophthalmology",
            "nameFr": "Ophtalmologie",
            "tags": [],
            "tagsFr": [],
            "narrowerTerms": [],
            "broaderTerms": [],
            "acronyms": [],
            "abbreviations": [],
            "professional": null,
            "professionalFr": null,
            "genericGroup": false,
            "childrens": [],
            "services": []
          },
          {
            "meshId": "D057909",
            "cliniaId": "2edd7860-944a-45b7-bc18-b6aa072d34f2",
            "legacyId": null,
            "name": "Orthognathic Surgery",
            "nameFr": "Chirurgie Orthognathique",
            "tags": [
              "Orthognathic Surgeries",
              "Surgeries, Orthognathic",
              "Surgery, Orthognathic"
            ],
            "tagsFr": [],
            "narrowerTerms": [],
            "broaderTerms": [],
            "acronyms": [],
            "abbreviations": [],
            "professional": null,
            "professionalFr": null,
            "genericGroup": false,
            "childrens": [],
            "services": []
          },
          {
            "meshId": "D009985",
            "cliniaId": "0f76c777-d994-40c0-9b6b-17ea7243c0f9",
            "legacyId": "37",
            "name": "Orthopedics",
            "nameFr": "Orthopédie",
            "tags": [
              "Orthopedic",
              "Orthopedic Surgery",
              "Orthopedic Surgeries",
              "Surgeries, Orthopedic",
              "Surgery, Orthopedic"
            ],
            "tagsFr": [],
            "narrowerTerms": ["Orthopedic Surgery"],
            "broaderTerms": [],
            "acronyms": [],
            "abbreviations": [],
            "professional": "Orthopedist",
            "professionalFr": "Orthopédiste",
            "genericGroup": false,
            "childrens": [],
            "services": []
          },
          {
            "meshId": "D010036",
            "cliniaId": "43d61fc2-1b4b-4687-8a00-57965ed087e2",
            "legacyId": "40",
            "name": "Otorhinolaryngology",
            "nameFr": "Oto-Rhino-Laryngologie",
            "tags": ["Otorhinolaryngology", "Otology", "Laryngology"],
            "tagsFr": [],
            "narrowerTerms": ["Otology", "Laryngology"],
            "broaderTerms": [],
            "acronyms": [],
            "abbreviations": [],
            "professional": "Otolaryngologist",
            "professionalFr": "Oto-rhino-laryngologiste",
            "genericGroup": false,
            "childrens": [],
            "services": []
          },
          {
            "meshId": "D013903",
            "cliniaId": "edeb6e41-daa6-4581-8be9-522ba5bd9dd9",
            "legacyId": null,
            "name": "Thoracic Surgery",
            "nameFr": "Chirurgie Thoracique",
            "tags": [
              "Surgery, Thoracic",
              "Surgery, Cardiac",
              "Surgery, Heart",
              "Heart Surgery",
              "Cardiac Surgery"
            ],
            "tagsFr": [],
            "narrowerTerms": ["Surgery, Cardiac"],
            "broaderTerms": [],
            "acronyms": [],
            "abbreviations": [],
            "professional": null,
            "professionalFr": null,
            "genericGroup": false,
            "childrens": [],
            "services": []
          },
          {
            "meshId": "D014194",
            "cliniaId": "9858a0c9-4950-4427-8a91-977fc1abceed",
            "legacyId": null,
            "name": "Traumatology",
            "nameFr": "Traumatologie",
            "tags": ["Surgical Traumatology", "Traumatology, Surgical"],
            "tagsFr": [],
            "narrowerTerms": [],
            "broaderTerms": [],
            "acronyms": [],
            "abbreviations": [],
            "professional": null,
            "professionalFr": null,
            "genericGroup": false,
            "childrens": [],
            "services": []
          },
          {
            "meshId": "D014572",
            "cliniaId": "330de3ea-78c3-48c8-b96a-0aad4b4b4981",
            "legacyId": "63",
            "name": "Urology",
            "nameFr": "Urologie",
            "tags": [],
            "tagsFr": [],
            "narrowerTerms": [],
            "broaderTerms": [],
            "acronyms": [],
            "abbreviations": [],
            "professional": "Urologist",
            "professionalFr": "Urologue",
            "genericGroup": false,
            "childrens": [],
            "services": []
          },
          {
            "meshId": null,
            "cliniaId": "da997b09-28cb-45e3-a415-2e537ff93c56",
            "legacyId": "81",
            "name": "Vascular surgery",
            "nameFr": "Chirurgie vasculaire",
            "tags": ["Endovascular surgery"],
            "tagsFr": ["Chirurgie envasculaire"],
            "narrowerTerms": [],
            "broaderTerms": [],
            "acronyms": [],
            "abbreviations": [],
            "professional": "Vascular surgeon",
            "professionalFr": "Chirurgien vasculaire",
            "genericGroup": false,
            "childrens": [],
            "services": []
          }
        ],
        "services": []
      },
      {
        "meshId": null,
        "cliniaId": "fb53916f-5c91-4547-813a-8eff52be9b24",
        "legacyId": null,
        "name": "Aesthetic Medicine",
        "nameFr": "Médecine esthétique",
        "tags": [],
        "tagsFr": [],
        "narrowerTerms": [],
        "broaderTerms": [],
        "acronyms": [],
        "abbreviations": [],
        "professional": null,
        "professionalFr": null,
        "genericGroup": true,
        "childrens": [
          {
            "meshId": null,
            "cliniaId": "83a13fb7-86ed-4dbd-8a55-c983231058b9",
            "legacyId": "79",
            "name": "Hair Transplant",
            "nameFr": "Greffe de cheveux",
            "tags": ["Baldness", "alopecia"],
            "tagsFr": ["Calvitie", "Alopécie"],
            "narrowerTerms": [],
            "broaderTerms": [],
            "acronyms": [],
            "abbreviations": [],
            "professional": null,
            "professionalFr": null,
            "genericGroup": false,
            "childrens": [],
            "services": []
          },
          {
            "meshId": "D013518",
            "cliniaId": "48113775-faa5-42fb-ba69-0a41f3c92732",
            "legacyId": "10",
            "name": "Plastic Surgery",
            "nameFr": "Chirurgie esthétique",
            "tags": [
              "Plastic Surgery",
              "Esthetic Surgery",
              "Esthetic Surgeries",
              "Surgeries, Esthetic",
              "Surgery, Esthetic",
              "Surgery, Cosmetic",
              "Cosmetic Surgery"
            ],
            "tagsFr": [],
            "narrowerTerms": ["Esthetic Surgery", "Surgery, Cosmetic"],
            "broaderTerms": [],
            "acronyms": [],
            "abbreviations": [],
            "professional": "Plastic surgeon",
            "professionalFr": "Chirurgien esthétique",
            "genericGroup": false,
            "childrens": [],
            "services": []
          }
        ],
        "services": []
      },
      {
        "meshId": "D017216",
        "cliniaId": "81b26900-ac28-48dc-8511-4edabb2d18ad",
        "legacyId": null,
        "name": "Telemedicine",
        "nameFr": "Télémédecine",
        "tags": [
          "Mobile Health",
          "Health, Mobile",
          "mHealth",
          "Telehealth",
          "eHealth"
        ],
        "tagsFr": [],
        "narrowerTerms": ["Mobile Health", "Telehealth"],
        "broaderTerms": [],
        "acronyms": [],
        "abbreviations": [],
        "professional": null,
        "professionalFr": null,
        "genericGroup": false,
        "childrens": [
          {
            "meshId": "D019113",
            "cliniaId": "151bf83a-ad49-4597-8aea-95f4c6bbf437",
            "legacyId": null,
            "name": "Telepathology",
            "nameFr": "Télépathologie",
            "tags": [],
            "tagsFr": [],
            "narrowerTerms": [],
            "broaderTerms": [],
            "acronyms": [],
            "abbreviations": [],
            "professional": null,
            "professionalFr": null,
            "genericGroup": false,
            "childrens": [],
            "services": []
          },
          {
            "meshId": "D019112",
            "cliniaId": "b96a9030-ee49-425b-a5b0-dda6bdb8d266",
            "legacyId": null,
            "name": "Teleradiology",
            "nameFr": "Téléradiologie",
            "tags": [],
            "tagsFr": [],
            "narrowerTerms": [],
            "broaderTerms": [],
            "acronyms": [],
            "abbreviations": [],
            "professional": null,
            "professionalFr": null,
            "genericGroup": false,
            "childrens": [],
            "services": []
          },
          {
            "meshId": "D000069350",
            "cliniaId": "b9606ac9-aacf-4d82-af55-30051fb21d80",
            "legacyId": null,
            "name": "Telerehabilitation",
            "nameFr": "Téléréadaptation",
            "tags": [
              "Telerehabilitations",
              "Tele-rehabilitation",
              "Tele rehabilitation",
              "Tele-rehabilitations",
              "Remote Rehabilitation",
              "Rehabilitation, Remote",
              "Rehabilitations, Remote",
              "Remote Rehabilitations",
              "Virtual Rehabilitation",
              "Rehabilitation, Virtual",
              "Rehabilitations, Virtual",
              "Virtual Rehabilitations"
            ],
            "tagsFr": [],
            "narrowerTerms": [],
            "broaderTerms": [],
            "acronyms": [],
            "abbreviations": [],
            "professional": null,
            "professionalFr": null,
            "genericGroup": false,
            "childrens": [],
            "services": []
          },
          {
            "meshId": "D019114",
            "cliniaId": "81b3a13a-c281-4212-8aa2-23095b0dacdb",
            "legacyId": null,
            "name": "Teleconsultation",
            "nameFr": "Téléconsultation",
            "tags": [],
            "tagsFr": [],
            "narrowerTerms": [],
            "broaderTerms": [],
            "acronyms": [],
            "abbreviations": [],
            "professional": null,
            "professionalFr": null,
            "genericGroup": false,
            "childrens": [],
            "services": []
          }
        ],
        "services": []
      },
      {
        "meshId": "D014686",
        "cliniaId": "306a551a-8085-4027-bbf1-ae1f4a4335fa",
        "legacyId": null,
        "name": "Venereology",
        "nameFr": "Vénéréologie",
        "tags": [],
        "tagsFr": [],
        "narrowerTerms": [],
        "broaderTerms": [],
        "acronyms": [],
        "abbreviations": [],
        "professional": null,
        "professionalFr": null,
        "genericGroup": false,
        "childrens": [],
        "services": []
      },
      {
        "meshId": null,
        "cliniaId": "82c2deed-18b9-4a9d-8b0b-0374ddc02dd9",
        "legacyId": "2",
        "name": "Allergology",
        "nameFr": "Allergologie",
        "tags": [],
        "tagsFr": [],
        "narrowerTerms": [],
        "broaderTerms": [],
        "acronyms": [],
        "abbreviations": [],
        "professional": "Allergist",
        "professionalFr": "Allergologue",
        "genericGroup": false,
        "childrens": [],
        "services": []
      },
      {
        "meshId": null,
        "cliniaId": "f00776fa-c9a1-49a8-bd45-978ab2252755",
        "legacyId": "76",
        "name": "Physiatry",
        "nameFr": "Physiatrie",
        "tags": [],
        "tagsFr": [],
        "narrowerTerms": [],
        "broaderTerms": [],
        "acronyms": [],
        "abbreviations": [],
        "professional": "Physiatrist",
        "professionalFr": "Physiatre",
        "genericGroup": false,
        "childrens": [],
        "services": []
      }
    ],
    "services": []
  },
  {
    "meshId": "D009729",
    "cliniaId": "e5830888-3ea9-4f60-bc2f-90ae8948f8ec",
    "legacyId": "25",
    "name": "Nursing",
    "nameFr": "Soins infirmiers",
    "tags": ["Nursings"],
    "tagsFr": [],
    "narrowerTerms": [],
    "broaderTerms": [],
    "acronyms": [],
    "abbreviations": [],
    "professional": "Nurse",
    "professionalFr": "Infirmier (ère)",
    "genericGroup": false,
    "childrens": [
      {
        "meshId": "D064646",
        "cliniaId": "0cca4e48-d806-497f-9670-c725f59447e4",
        "legacyId": null,
        "name": "Cardiovascular Nursing",
        "nameFr": "Soins Infirmiers Cardiovasculaires",
        "tags": [
          "Nursing, Cardiovascular",
          "Coronary Care Nursing",
          "Nursing, Coronary Care",
          "Cardiac Vascular Nursing",
          "Nursing, Cardiac Vascular",
          "Cardiac Care Nursing",
          "Nursing, Cardiac Care",
          "Cardiac Nursing",
          "Nursing, Cardiac",
          "Vascular Nursing",
          "Nursing, Vascular"
        ],
        "tagsFr": [],
        "narrowerTerms": ["Vascular Nursing"],
        "broaderTerms": [],
        "acronyms": [],
        "abbreviations": [],
        "professional": null,
        "professionalFr": null,
        "genericGroup": false,
        "childrens": [],
        "services": []
      },
      {
        "meshId": "D003152",
        "cliniaId": "b0c695aa-7322-4af2-a58d-3cd120bfef2a",
        "legacyId": null,
        "name": "Community Health Nursing",
        "nameFr": "Soins Infirmiers en Santé Communautaire",
        "tags": ["Nursing, Community Health"],
        "tagsFr": [],
        "narrowerTerms": [],
        "broaderTerms": [],
        "acronyms": [],
        "abbreviations": [],
        "professional": null,
        "professionalFr": null,
        "genericGroup": false,
        "childrens": [
          {
            "meshId": "D064650",
            "cliniaId": "ac2873e7-5c02-48ab-a6d6-d8265f060513",
            "legacyId": "60",
            "name": "Home Health Nursing",
            "nameFr": "Soins Infirmiers à Domicile",
            "tags": ["Nursing, Home Health", "Home Health Care Nursing"],
            "tagsFr": [],
            "narrowerTerms": [],
            "broaderTerms": [],
            "acronyms": [],
            "abbreviations": [],
            "professional": "Home Care specialist",
            "professionalFr": "Spécialiste en soins à domicile",
            "genericGroup": false,
            "childrens": [],
            "services": []
          }
        ],
        "services": []
      },
      {
        "meshId": "D064648",
        "cliniaId": "ad7efce7-23aa-4686-973d-d8768ca03a92",
        "legacyId": null,
        "name": "Intensive Care Nursing",
        "nameFr": "Soins Infirmiers en Soins Intensifs",
        "tags": [
          "Nursing, Critical Care",
          "Intensive Care Nursing",
          "Nursing, Intensive Care"
        ],
        "tagsFr": [],
        "narrowerTerms": [],
        "broaderTerms": [],
        "acronyms": [],
        "abbreviations": [],
        "professional": null,
        "professionalFr": null,
        "genericGroup": false,
        "childrens": [],
        "services": []
      },
      {
        "meshId": "D016529",
        "cliniaId": "913eddcb-fd80-4ca0-89dd-f49ad2a0c808",
        "legacyId": null,
        "name": "Emergency Nursing",
        "nameFr": "Soins Infirmiers d'Urgence",
        "tags": [
          "Nursing, Emergency Room",
          "Emergency Room Nursing",
          "Nursing, Emergency"
        ],
        "tagsFr": [],
        "narrowerTerms": [],
        "broaderTerms": [],
        "acronyms": [],
        "abbreviations": [],
        "professional": null,
        "professionalFr": null,
        "genericGroup": false,
        "childrens": [],
        "services": []
      },
      {
        "meshId": "D022143",
        "cliniaId": "24a32fc7-2665-4bc1-9df7-63d04ee72527",
        "legacyId": null,
        "name": "Family Nursing",
        "nameFr": "Soins Infirmiers Familiaux",
        "tags": [
          "Family Nursings",
          "Nursing, Family",
          "Nursings, Family",
          "Family-Centered Nursing",
          "Family Centered Nursing",
          "Family-Centered Nursings",
          "Nursing, Family-Centered",
          "Nursings, Family-Centered"
        ],
        "tagsFr": [],
        "narrowerTerms": [],
        "broaderTerms": [],
        "acronyms": [],
        "abbreviations": [],
        "professional": null,
        "professionalFr": null,
        "genericGroup": false,
        "childrens": [],
        "services": []
      },
      {
        "meshId": "D005851",
        "cliniaId": "93c06981-da28-4490-bbde-b2a880198380",
        "legacyId": null,
        "name": "Geriatric Nursing",
        "nameFr": "Soins Infirmiers Gériatriques",
        "tags": [
          "Nursing, Geriatric",
          "Geriatric Nursings",
          "Nursings, Geriatric"
        ],
        "tagsFr": [],
        "narrowerTerms": [],
        "broaderTerms": [],
        "acronyms": [],
        "abbreviations": [],
        "professional": null,
        "professionalFr": null,
        "genericGroup": false,
        "childrens": [],
        "services": []
      },
      {
        "meshId": "D064946",
        "cliniaId": "8bd71f92-f6a3-4ae9-a54f-382308b92869",
        "legacyId": null,
        "name": "Palliative Care Nursing",
        "nameFr": "Soins Infirmiers Palliatifs",
        "tags": [
          "Palliative Nursing",
          "Palliative Care Nursing",
          "Hospice Nursing",
          "Hospice Nursings",
          "Nursing, Hospice",
          "Nursings, Hospice"
        ],
        "tagsFr": [],
        "narrowerTerms": ["Palliative Nursing", "Hospice Nursing"],
        "broaderTerms": [],
        "acronyms": [],
        "abbreviations": [],
        "professional": null,
        "professionalFr": null,
        "genericGroup": false,
        "childrens": [],
        "services": []
      },
      {
        "meshId": "D000069469",
        "cliniaId": "8dbb2098-b270-4744-b7bf-c979d8db6484",
        "legacyId": null,
        "name": "Medical-Surgical Nursing",
        "nameFr": "Soins Infirmiers Médico-Chirurgicaux",
        "tags": [
          "Nursing, Medical-Surgical",
          "Medical Surgical Nursing",
          "Nursing, Medical Surgical"
        ],
        "tagsFr": [],
        "narrowerTerms": [],
        "broaderTerms": [],
        "acronyms": [],
        "abbreviations": [],
        "professional": null,
        "professionalFr": null,
        "genericGroup": false,
        "childrens": [],
        "services": []
      },
      {
        "meshId": "D008880",
        "cliniaId": "5c588082-3c34-47e7-ba1b-5d9ed8b30a8e",
        "legacyId": "84",
        "name": "Midwifery",
        "nameFr": "Infirmières Sages-Femmes",
        "tags": [
          "Midwives",
          "Midwife",
          "Traditional Birth Attendant",
          "Birth Attendant, Traditional",
          "Birth Attendants, Traditional",
          "Traditional Birth Attendants"
        ],
        "tagsFr": [],
        "narrowerTerms": ["Midwives", "Traditional Birth Attendant"],
        "broaderTerms": [],
        "acronyms": [],
        "abbreviations": [],
        "professional": null,
        "professionalFr": null,
        "genericGroup": false,
        "childrens": [],
        "services": []
      },
      {
        "meshId": "D064647",
        "cliniaId": "fe2e0e84-702b-41c9-ac7d-5409d6e863fa",
        "legacyId": null,
        "name": "Nephrology Nursing",
        "nameFr": "Soins Infirmiers en Néphrologie",
        "tags": [
          "Nursing, Nephrology",
          "Urologic Nursing",
          "Nursing, Urologic",
          "Urology Nursing",
          "Nursing, Urology",
          "Renal Nursing",
          "Nursing, Renal"
        ],
        "tagsFr": [],
        "narrowerTerms": [],
        "broaderTerms": [],
        "acronyms": [],
        "abbreviations": [],
        "professional": null,
        "professionalFr": null,
        "genericGroup": false,
        "childrens": [],
        "services": []
      },
      {
        "meshId": "D009773",
        "cliniaId": "6c4670dd-1634-431e-bb17-db85419f6210",
        "legacyId": null,
        "name": "Obstetric Nursing",
        "nameFr": "Soins Infirmiers Obstétricaux",
        "tags": [
          "Nursing, Obstetric",
          "Nursings, Obstetric",
          "Obstetric Nursings",
          "Nursing, Obstetrical",
          "Nursings, Obstetrical",
          "Obstetrical Nursings",
          "Obstetrical Nursing"
        ],
        "tagsFr": [],
        "narrowerTerms": [],
        "broaderTerms": [],
        "acronyms": [],
        "abbreviations": [],
        "professional": null,
        "professionalFr": null,
        "genericGroup": false,
        "childrens": [],
        "services": []
      },
      {
        "meshId": "D009785",
        "cliniaId": "5796a85a-75d2-4e83-a448-be18a0dd1580",
        "legacyId": null,
        "name": "Occupational Health Nursing",
        "nameFr": "Soins Infirmiers en Ergothérapie",
        "tags": [
          "Nursing, Occupational Health",
          "Health Nursing, Occupational",
          "Health Nursings, Occupational",
          "Nursings, Occupational Health",
          "Occupational Health Nursings",
          "Industrial Nursing",
          "Nursing, Industrial",
          "Industrial Nursings",
          "Nursings, Industrial"
        ],
        "tagsFr": [],
        "narrowerTerms": ["Industrial Nursing"],
        "broaderTerms": [],
        "acronyms": [],
        "abbreviations": [],
        "professional": null,
        "professionalFr": null,
        "genericGroup": false,
        "childrens": [],
        "services": []
      },
      {
        "meshId": "D009859",
        "cliniaId": "4ecc0d70-8f7e-4db8-a951-a989b1c6904a",
        "legacyId": null,
        "name": "Oncology Nursing",
        "nameFr": "Soins Infirmiers en Oncologie",
        "tags": [
          "Nursing, Oncology",
          "Oncologic Nursing",
          "Cancer Nursing",
          "Nursing, Cancer",
          "Nursing, Oncologic",
          "Oncological Nursing",
          "Nursing, Oncological"
        ],
        "tagsFr": [],
        "narrowerTerms": [],
        "broaderTerms": [],
        "acronyms": [],
        "abbreviations": [],
        "professional": null,
        "professionalFr": null,
        "genericGroup": false,
        "childrens": [],
        "services": []
      },
      {
        "meshId": "D016530",
        "cliniaId": "fd5f7975-3e16-4ca2-9bf4-9de0d4ce342e",
        "legacyId": null,
        "name": "Orthopedic Nursing",
        "nameFr": "Soins Infirmiers en Orthopédiques",
        "tags": ["Nursing, Orthopedic"],
        "tagsFr": [],
        "narrowerTerms": [],
        "broaderTerms": [],
        "acronyms": [],
        "abbreviations": [],
        "professional": null,
        "professionalFr": null,
        "genericGroup": false,
        "childrens": [],
        "services": []
      },
      {
        "meshId": "D010371",
        "cliniaId": "bd50fce4-0dfc-4fc4-a725-c9a056b6230f",
        "legacyId": null,
        "name": "Pediatric Nursing",
        "nameFr": "Soins Infirmiers Pédiatriques",
        "tags": [
          "Nursing, Pediatric",
          "Nursings, Pediatric",
          "Pediatric Nursings"
        ],
        "tagsFr": [],
        "narrowerTerms": [],
        "broaderTerms": [],
        "acronyms": [],
        "abbreviations": [],
        "professional": null,
        "professionalFr": null,
        "genericGroup": false,
        "childrens": [
          {
            "meshId": "D017283",
            "cliniaId": "7c727442-a4d1-4b4a-82a8-b7f54886d63d",
            "legacyId": null,
            "name": "Neonatal Nursing",
            "nameFr": "Soins Infirmiers Néonatals",
            "tags": [
              "Nursing, Neonatal",
              "Nursing, Perinatal",
              "Perinatal Nursing"
            ],
            "tagsFr": [],
            "narrowerTerms": ["Nursing, Perinatal"],
            "broaderTerms": [],
            "acronyms": [],
            "abbreviations": [],
            "professional": null,
            "professionalFr": null,
            "genericGroup": false,
            "childrens": [],
            "services": []
          }
        ],
        "services": []
      },
      {
        "meshId": "D011568",
        "cliniaId": "eb63f6de-b266-4206-945a-eef5c71406b0",
        "legacyId": null,
        "name": "Psychiatric Nursing",
        "nameFr": "Soins Infirmiers Psychiatriques",
        "tags": [
          "Mental Health Nursing",
          "Nursing, Mental Health",
          "Nursing, Psychiatric",
          "Psychosocial Nursing",
          "Nursing, Psychosocial"
        ],
        "tagsFr": [],
        "narrowerTerms": ["Psychosocial Nursing"],
        "broaderTerms": [],
        "acronyms": [],
        "abbreviations": [],
        "professional": null,
        "professionalFr": null,
        "genericGroup": false,
        "childrens": [],
        "services": []
      },
      {
        "meshId": "D000072856",
        "cliniaId": "2ada6d57-e2b6-4931-be5e-417861ce364f",
        "legacyId": null,
        "name": "Radiologic and Imaging Nursing",
        "nameFr": "Soins Infirmiers en Radiologie/Imagerie",
        "tags": [
          "Radiologic Nursing",
          "Nursing, Radiologic",
          "Nursing, Radiologic and Imaging"
        ],
        "tagsFr": [],
        "narrowerTerms": [],
        "broaderTerms": [],
        "acronyms": [],
        "abbreviations": [],
        "professional": null,
        "professionalFr": null,
        "genericGroup": false,
        "childrens": [],
        "services": []
      },
      {
        "meshId": "D019145",
        "cliniaId": "2c6e15d9-64fe-4a09-a3c8-1308e7d681cb",
        "legacyId": null,
        "name": "Rehabilitation Nursing",
        "nameFr": "Soins Infirmiers de Réadaptation",
        "tags": [
          "Nursing, Rehabilitation",
          "Nursings, Rehabilitation",
          "Rehabilitation Nursings"
        ],
        "tagsFr": [],
        "narrowerTerms": [],
        "broaderTerms": [],
        "acronyms": [],
        "abbreviations": [],
        "professional": null,
        "professionalFr": null,
        "genericGroup": false,
        "childrens": [],
        "services": []
      }
    ],
    "services": []
  },
  {
    "meshId": "D004046",
    "cliniaId": "41933415-e0b4-45ed-8e14-d977d022d5f6",
    "legacyId": "31",
    "name": "Dietetics",
    "nameFr": "Nutrition",
    "tags": ["Nutritionist"],
    "tagsFr": ["Nutritionniste"],
    "narrowerTerms": [],
    "broaderTerms": [],
    "acronyms": [],
    "abbreviations": [],
    "professional": "Dietitian",
    "professionalFr": "Diététicien (ne)",
    "genericGroup": false,
    "childrens": [],
    "services": []
  },
  {
    "meshId": "D009907",
    "cliniaId": "3c58a53d-4d97-47b1-8445-1d041e26423c",
    "legacyId": null,
    "name": "Optometry",
    "nameFr": "Optométrie",
    "tags": ["Optometries"],
    "tagsFr": [],
    "narrowerTerms": [],
    "broaderTerms": [],
    "acronyms": [],
    "abbreviations": [],
    "professional": null,
    "professionalFr": null,
    "genericGroup": false,
    "childrens": [],
    "services": []
  },
  {
    "meshId": "D009988",
    "cliniaId": "dca828ae-67c4-442c-a8d7-8ce123d7b378",
    "legacyId": null,
    "name": "Orthoptics",
    "nameFr": "Orthoptique",
    "tags": ["Orthoptic", "Pleoptics", "Pleoptic"],
    "tagsFr": [],
    "narrowerTerms": [],
    "broaderTerms": [],
    "acronyms": [],
    "abbreviations": [],
    "professional": null,
    "professionalFr": null,
    "genericGroup": false,
    "childrens": [],
    "services": []
  },
  {
    "meshId": "D010604",
    "cliniaId": "77b16d97-db16-48f4-b0a3-969d3a8fc471",
    "legacyId": "44",
    "name": "Pharmacy",
    "nameFr": "Pharmacie",
    "tags": [
      "Pharmacy Practice Patterns",
      "Pattern, Pharmacy Practice",
      "Patterns, Pharmacy Practice",
      "Pharmacy Practice Pattern",
      "Practice Pattern, Pharmacy",
      "Practice Patterns, Pharmacy",
      "Forensic Pharmacy",
      "Forensic Pharmacies",
      "Pharmacies, Forensic",
      "Pharmacy, Forensic"
    ],
    "tagsFr": [],
    "narrowerTerms": ["Pharmacy Practice Patterns", "Forensic Pharmacy"],
    "broaderTerms": [],
    "acronyms": [],
    "abbreviations": [],
    "professional": "Pharmacist",
    "professionalFr": "Pharmacien",
    "genericGroup": false,
    "childrens": [
      {
        "meshId": "D000070840",
        "cliniaId": "2906943c-fc57-440e-92a6-c6429cbb67ad",
        "legacyId": null,
        "name": "Nuclear Pharmacy",
        "nameFr": "Pharmacie Nucléaire",
        "tags": ["Pharmacy, Nuclear"],
        "tagsFr": [],
        "narrowerTerms": [],
        "broaderTerms": [],
        "acronyms": [],
        "abbreviations": [],
        "professional": null,
        "professionalFr": null,
        "genericGroup": false,
        "childrens": [],
        "services": []
      },
      {
        "meshId": null,
        "cliniaId": "8ab07e07-7302-465a-8f99-ec9baff159d0",
        "legacyId": "82",
        "name": "Magistrals Preparation",
        "nameFr": "Préparation de Magistrales",
        "tags": [],
        "tagsFr": [],
        "narrowerTerms": [],
        "broaderTerms": [],
        "acronyms": [],
        "abbreviations": [],
        "professional": null,
        "professionalFr": null,
        "genericGroup": false,
        "childrens": [],
        "services": []
      }
    ],
    "services": []
  },
  {
    "meshId": "D011032",
    "cliniaId": "d0dea7ab-b9aa-4c2e-8f03-eb7956baf345",
    "legacyId": "47",
    "name": "Podiatry",
    "nameFr": "Podiatrie",
    "tags": ["Chiropody"],
    "tagsFr": [],
    "narrowerTerms": [],
    "broaderTerms": [],
    "acronyms": [],
    "abbreviations": [],
    "professional": "Podiatrist",
    "professionalFr": "Podiatre",
    "genericGroup": false,
    "childrens": [],
    "services": []
  },
  {
    "meshId": null,
    "cliniaId": "21d0d7fb-1ee1-416d-88a3-39ce5619d500",
    "legacyId": "5",
    "name": "Hearing-Aid",
    "nameFr": "Audioprothésiste",
    "tags": [],
    "tagsFr": [],
    "narrowerTerms": [],
    "broaderTerms": [],
    "acronyms": [],
    "abbreviations": [],
    "professional": "Audioprosthetist",
    "professionalFr": "Audioprothésiste",
    "genericGroup": false,
    "childrens": [],
    "services": []
  },
  {
    "meshId": null,
    "cliniaId": "f4cf4597-f4f4-41ba-ba88-0c5faa75ca9a",
    "legacyId": "15",
    "name": "Denturology",
    "nameFr": "Denturologie",
    "tags": [],
    "tagsFr": [],
    "narrowerTerms": [],
    "broaderTerms": [],
    "acronyms": [],
    "abbreviations": [],
    "professional": "Denturologist",
    "professionalFr": "Denturologiste",
    "genericGroup": false,
    "childrens": [],
    "services": []
  },
  {
    "meshId": null,
    "cliniaId": "4e25b4c1-3d73-46a5-a66a-4a3931406a41",
    "legacyId": "33",
    "name": "Optics",
    "nameFr": "Optique",
    "tags": [],
    "tagsFr": [],
    "narrowerTerms": [],
    "broaderTerms": [],
    "acronyms": [],
    "abbreviations": [],
    "professional": "Optical specialist",
    "professionalFr": "Spécialiste en optique",
    "genericGroup": false,
    "childrens": [],
    "services": []
  },
  {
    "meshId": null,
    "cliniaId": "8a4e82a4-0298-4896-abaf-daad82fad91e",
    "legacyId": "34",
    "name": "Orthotics-Prostheses",
    "nameFr": "Orthèses-Prothèses",
    "tags": [],
    "tagsFr": [],
    "narrowerTerms": [],
    "broaderTerms": [],
    "acronyms": [],
    "abbreviations": [],
    "professional": "Orthesist/Prosthetist",
    "professionalFr": "Orthésiste - Prothésiste",
    "genericGroup": false,
    "childrens": [],
    "services": []
  },
  {
    "meshId": null,
    "cliniaId": "6503851e-e0fb-4dec-b511-e661d39a2792",
    "legacyId": "52",
    "name": "Psychoeducation",
    "nameFr": "Psychoéducation",
    "tags": [],
    "tagsFr": [],
    "narrowerTerms": [],
    "broaderTerms": [],
    "acronyms": [],
    "abbreviations": [],
    "professional": "Psychoeducator",
    "professionalFr": "Psychoéducateur",
    "genericGroup": false,
    "childrens": [],
    "services": []
  },
  {
    "meshId": null,
    "cliniaId": "3a6d57d6-4fce-44d2-b489-707f24df1535",
    "legacyId": "56",
    "name": "Physical Rehabilitation",
    "nameFr": "Réadaptation physique",
    "tags": [],
    "tagsFr": [],
    "narrowerTerms": [],
    "broaderTerms": [],
    "acronyms": [],
    "abbreviations": [],
    "professional": "Rehabilitation specialist",
    "professionalFr": "Spécialiste en réadaptation",
    "genericGroup": false,
    "childrens": [],
    "services": []
  },
  {
    "meshId": null,
    "cliniaId": "dadc9f3c-e987-48a5-ba68-0570a633412a",
    "legacyId": "61",
    "name": "Sleep disorder",
    "nameFr": "Trouble du sommeil",
    "tags": [],
    "tagsFr": ["Ronflement", "Apnée du sommeil"],
    "narrowerTerms": [],
    "broaderTerms": [],
    "acronyms": [],
    "abbreviations": [],
    "professional": "Sleep professionals",
    "professionalFr": "Professionnels du sommeil",
    "genericGroup": false,
    "childrens": [],
    "services": []
  },
  {
    "meshId": null,
    "cliniaId": "5da119b0-193e-44f2-ad66-db7c65e60d93",
    "legacyId": "66",
    "name": "Vaccination",
    "nameFr": "Vaccination",
    "tags": [],
    "tagsFr": [],
    "narrowerTerms": [],
    "broaderTerms": [],
    "acronyms": [],
    "abbreviations": [],
    "professional": "Vaccination service",
    "professionalFr": "Service de vaccination",
    "genericGroup": false,
    "childrens": [],
    "services": []
  },
  {
    "meshId": null,
    "cliniaId": "4f528d64-adb6-4ab8-8382-418f964fbb4c",
    "legacyId": "75",
    "name": "Respiratory therapy",
    "nameFr": "Inhalothérapie",
    "tags": [],
    "tagsFr": [],
    "narrowerTerms": [],
    "broaderTerms": [],
    "acronyms": [],
    "abbreviations": [],
    "professional": "Respiratory therapist",
    "professionalFr": "Inhalothérapeute",
    "genericGroup": false,
    "childrens": [],
    "services": []
  },
  {
    "meshId": null,
    "cliniaId": "7907886b-6a98-4992-8978-93cd173ed357",
    "legacyId": "85",
    "name": "Addiction",
    "nameFr": "Dépendance",
    "tags": [],
    "tagsFr": [],
    "narrowerTerms": [],
    "broaderTerms": [],
    "acronyms": [],
    "abbreviations": [],
    "professional": null,
    "professionalFr": null,
    "genericGroup": false,
    "childrens": [],
    "services": []
  },
  {
    "meshId": null,
    "cliniaId": "2e4c73a8-7f16-4c46-94f7-bc59060b5c69",
    "legacyId": null,
    "name": "Alternative Medicine",
    "nameFr": "Médecine Alternative",
    "tags": [],
    "tagsFr": [],
    "narrowerTerms": [],
    "broaderTerms": [],
    "acronyms": [],
    "abbreviations": [],
    "professional": null,
    "professionalFr": null,
    "genericGroup": false,
    "childrens": [
      {
        "meshId": "D010021",
        "cliniaId": "9faf02e0-7791-4f35-b614-cf86bff0087f",
        "legacyId": null,
        "name": "Osteopathic",
        "nameFr": "Ostéopathie",
        "tags": [
          "Medicine, Osteopathic",
          "Osteopathic Manipulative Medicine",
          "Manipulative Medicine, Osteopathic",
          "Medicine, Osteopathic Manipulative"
        ],
        "tagsFr": [],
        "narrowerTerms": ["Osteopathic Manipulative Medicine"],
        "broaderTerms": [],
        "acronyms": [],
        "abbreviations": [],
        "professional": null,
        "professionalFr": null,
        "genericGroup": false,
        "childrens": [],
        "services": []
      },
      {
        "meshId": null,
        "cliniaId": "def73db5-7735-4d2f-ab53-dcf51e033383",
        "legacyId": "84",
        "name": "Midwifery",
        "nameFr": "Sages-femmes",
        "tags": [],
        "tagsFr": [],
        "narrowerTerms": [],
        "broaderTerms": [],
        "acronyms": [],
        "abbreviations": [],
        "professional": null,
        "professionalFr": null,
        "genericGroup": false,
        "childrens": [],
        "services": []
      },
      {
        "meshId": null,
        "cliniaId": "ab60b845-bc28-483d-9f0b-37ad35caf3b8",
        "legacyId": "26",
        "name": "Kinesiology",
        "nameFr": "Kinésiologie",
        "tags": ["Kinesiotherapy"],
        "tagsFr": ["Kinesiotherap"],
        "narrowerTerms": [],
        "broaderTerms": [],
        "acronyms": [],
        "abbreviations": [],
        "professional": "Kinesiologist",
        "professionalFr": "Kinésiologue",
        "genericGroup": false,
        "childrens": [],
        "services": []
      },
      {
        "meshId": null,
        "cliniaId": "f7df9685-9737-4b66-903d-3df0832b256e",
        "legacyId": "28",
        "name": "Massage Therapy",
        "nameFr": "Massothérapie",
        "tags": [],
        "tagsFr": [],
        "narrowerTerms": [],
        "broaderTerms": [],
        "acronyms": [],
        "abbreviations": [],
        "professional": "Massage therapist",
        "professionalFr": "Massothérapeute",
        "genericGroup": false,
        "childrens": [],
        "services": []
      },
      {
        "meshId": null,
        "cliniaId": "e8d5a068-c012-44a3-be52-9602fa576a3b",
        "legacyId": "29",
        "name": "Naturopathy",
        "nameFr": "Naturopathie",
        "tags": [],
        "tagsFr": [],
        "narrowerTerms": [],
        "broaderTerms": [],
        "acronyms": [],
        "abbreviations": [],
        "professional": "Naturopath",
        "professionalFr": "Naturopathe",
        "genericGroup": false,
        "childrens": [],
        "services": []
      },
      {
        "meshId": null,
        "cliniaId": "5114c5fb-9323-4b6f-acc6-cd5c8fae11aa",
        "legacyId": "36",
        "name": "Orthopedagogy",
        "nameFr": "Orthopédagogie",
        "tags": [],
        "tagsFr": [],
        "narrowerTerms": [],
        "broaderTerms": [],
        "acronyms": [],
        "abbreviations": [],
        "professional": "Psycho-educator",
        "professionalFr": "Orthopédagogue",
        "genericGroup": false,
        "childrens": [],
        "services": []
      },
      {
        "meshId": null,
        "cliniaId": "45fd7472-081f-4373-aef7-69413af3b269",
        "legacyId": "39",
        "name": "Orthotherapy",
        "nameFr": "Orthothérapie",
        "tags": [],
        "tagsFr": [],
        "narrowerTerms": [],
        "broaderTerms": [],
        "acronyms": [],
        "abbreviations": [],
        "professional": "Orthotherapist",
        "professionalFr": "Orthothérapeute",
        "genericGroup": false,
        "childrens": [],
        "services": []
      },
      {
        "meshId": null,
        "cliniaId": "62fca144-e324-4b67-a2ba-954405dda3d3",
        "legacyId": "41",
        "name": "Osteopathy",
        "nameFr": "Ostéopathie",
        "tags": [],
        "tagsFr": [],
        "narrowerTerms": [],
        "broaderTerms": [],
        "acronyms": [],
        "abbreviations": [],
        "professional": "Osteopath",
        "professionalFr": "Ostéopathe",
        "genericGroup": false,
        "childrens": [],
        "services": []
      },
      {
        "meshId": null,
        "cliniaId": "6ab3d276-500c-4c24-8a91-761e119977f8",
        "legacyId": "67",
        "name": "Podology",
        "nameFr": "Podologie",
        "tags": ["Chiropodist"],
        "tagsFr": [],
        "narrowerTerms": [],
        "broaderTerms": [],
        "acronyms": [],
        "abbreviations": [],
        "professional": "Podologist",
        "professionalFr": "Podologue",
        "genericGroup": false,
        "childrens": [],
        "services": []
      },
      {
        "meshId": null,
        "cliniaId": "cf71b889-bb30-4acd-b180-13a433b099e4",
        "legacyId": "74",
        "name": "Hypnotherapy",
        "nameFr": "Hypnothérapie",
        "tags": [],
        "tagsFr": [],
        "narrowerTerms": [],
        "broaderTerms": [],
        "acronyms": [],
        "abbreviations": [],
        "professional": "Hypnotherapist",
        "professionalFr": "Hypnothérapeute",
        "genericGroup": false,
        "childrens": [],
        "services": []
      },
      {
        "meshId": null,
        "cliniaId": "26937e47-1e63-4369-96c8-4765c631b304",
        "legacyId": "20",
        "name": "Aesthetic",
        "nameFr": "Esthétique",
        "tags": [],
        "tagsFr": [],
        "narrowerTerms": [],
        "broaderTerms": [],
        "acronyms": [],
        "abbreviations": [],
        "professional": "Aesthetician",
        "professionalFr": "Spécialiste en esthétique",
        "genericGroup": false,
        "childrens": [],
        "services": []
      },
      {
        "meshId": null,
        "cliniaId": "72b11232-59de-4819-9971-a8627800092b",
        "legacyId": "83",
        "name": "Breastfeeding Support",
        "nameFr": "Soutien à l'Allaitement",
        "tags": [],
        "tagsFr": [],
        "narrowerTerms": [],
        "broaderTerms": [],
        "acronyms": [],
        "abbreviations": [],
        "professional": "Breastfeeding Consultants",
        "professionalFr": "Consultate en lactation",
        "genericGroup": false,
        "childrens": [],
        "services": []
      },
      {
        "meshId": null,
        "cliniaId": "70fcbb64-75e7-4b6b-8dae-5473ef8a6da2",
        "legacyId": null,
        "name": "Coaching",
        "nameFr": "Coaching",
        "tags": [],
        "tagsFr": [],
        "narrowerTerms": [],
        "broaderTerms": [],
        "acronyms": [],
        "abbreviations": [],
        "professional": null,
        "professionalFr": null,
        "genericGroup": false,
        "childrens": [],
        "services": []
      }
    ],
    "services": []
  }
]
